882451 671393 525
841780 818702 525
539770 979069 525
665670 638718 442
190300 185328 360
868725 129151 525
433928 760190 509
171430 868683 525
487337 977856 525
170484 877409 525
517042 131106 470
48091 641512 509
217997 498156 449
71966 523197 470
652564 506719 509
717637 316251 509
173393 707298 509
46137 702755 509
680883 45735 509
849132 939513 507
424807 567808 470
11294 736743 509
183373 892430 525
54682 604081 470
211507 741441 509
753420 563524 509
184434 849779 525
367711 347879 410
190684 987205 525
570268 24730 470
505914 528322 470
888832 151328 525
757942 384265 509
723957 651295 504
286826 139256 443
326974 967484 525
915931 182851 525
862317 351277 525
343514 152171 443
557111 943035 525
380873 927597 525
482694 185555 449
483319 637515 509
472790 556712 470
882791 122021 525
53510 593709 470
486538 649640 509
994375 253180 525
456537 42418 449
924642 834905 525
570102 254138 470
622753 930144 525
850403 86775 525
952834 915704 507
398779 492314 449
266949 731009 509
838278 932688 476
338385 555656 470
459071 160854 449
425365 146413 449
867405 378796 525
706388 775943 468
863528 619828 525
536494 565386 452
952076 802644 525
969829 562999 525
625428 315523 470
564241 407686 470
339162 26382 443
886091 53408 525
354342 28549 443
985215 462388 525
305642 735923 509
263281 264689 332
573710 366396 470
606547 546736 434
594505 502058 470
607506 905959 525
260 960087 525
462464 866778 525
993326 205709 525
997638 931517 507
43969 32896 324
259978 57579 443
744729 592573 509
109086 920601 525
815318 23348 509
447323 422084 418
408472 892599 525
997651 342716 525
348737 326034 441
491374 421746 444
204410 889825 525
105001 383704 443
398080 631503 509
976763 417227 525
154080 850962 525
804979 754248 468
594047 713852 509
759757 243966 509
808049 134748 509
274724 348797 441
706791 808553 468
991258 582640 525
711348 789029 468
211160 480921 449
385074 110064 443
340245 723489 509
400541 769442 509
969584 234521 525
474266 144775 449
805006 445985 509
91689 87140 333
150980 829136 509
94306 125696 354
453585 941791 525
652397 127465 509
648293 40801 509
223439 59987 386
583739 200988 470
973361 281272 525
149190 380122 443
943770 571411 525
704197 635274 442
859031 179667 525
482403 659642 509
679555 849565 525
171672 634686 509
280736 530769 470
965578 335694 525
284453 169953 443
204158 158971 370
142387 988800 525
998389 71476 525
44790 139128 354
470266 173827 449
939599 509610 525
495475 79201 449
938472 573143 525
949832 459425 525
875907 147853 525
319699 804740 509
708797 861980 525
236579 828268 509
761552 54558 509
200174 715617 509
275762 353089 441
296515 747149 509
360826 578742 470
942392 486915 525
38365 215244 383
944156 979742 458
217287 517458 470
2264 337448 443
817301 224327 509
634876 521832 509
483732 796136 509
811918 345835 509
330184 517988 470
701189 663593 442
144134 259617 443
164632 419738 449
415831 632740 509
303374 754416 509
6547 622499 470
918300 744322 525
27875 887315 525
552886 487238 470
713024 455956 509
904595 77263 525
700232 228992 509
618521 761082 509
909997 834650 525
612421 950530 525
747807 518643 509
718400 85900 509
87670 944799 525
706627 833392 468
903054 103351 525
678953 53196 509
170590 371299 443
756453 715824 424
94478 182173 383
732385 173229 509
867737 226158 525
344531 483977 449
328431 916392 525
797840 178860 509
284227 637036 509
621200 284439 470
459651 347407 449
30522 36179 324
261975 857592 525
898387 826830 525
401669 618072 470
869885 608469 525
125673 310966 443
858000 355785 525
702973 187366 509
730662 125307 509
